^\\DOUGAL\CS1U$\ZXC03U\DESKTOP\G52CPP CW2013\DEBUG\BASEENGINE.OBJ|\\DOUGAL\CS1U$\ZXC03U\DESKTOP\G52CPP CW2013\DEBUG\BOUNCINGBALL.OBJ|\\DOUGAL\CS1U$\ZXC03U\DESKTOP\G52CPP CW2013\DEBUG\BOUNCINGBALLMAIN.OBJ|\\DOUGAL\CS1U$\ZXC03U\DESKTOP\G52CPP CW2013\DEBUG\BULLETOBJECT.OBJ|\\DOUGAL\CS1U$\ZXC03U\DESKTOP\G52CPP CW2013\DEBUG\DEMO2AMAIN.OBJ|\\DOUGAL\CS1U$\ZXC03U\DESKTOP\G52CPP CW2013\DEBUG\DEMO2MAIN.OBJ|\\DOUGAL\CS1U$\ZXC03U\DESKTOP\G52CPP CW2013\DEBUG\DEMO2OBJECT.OBJ|\\DOUGAL\CS1U$\ZXC03U\DESKTOP\G52CPP CW2013\DEBUG\DEMO2TILEMANAGER.OBJ|\\DOUGAL\CS1U$\ZXC03U\DESKTOP\G52CPP CW2013\DEBUG\DEMO3MAIN.OBJ|\\DOUGAL\CS1U$\ZXC03U\DESKTOP\G52CPP CW2013\DEBUG\DEMO3OBJECT.OBJ|\\DOUGAL\CS1U$\ZXC03U\DESKTOP\G52CPP CW2013\DEBUG\DEMO3OBJECTFINISHED.OBJ|\\DOUGAL\CS1U$\ZXC03U\DESKTOP\G52CPP CW2013\DEBUG\DEMO3TILEMANAGER.OBJ|\\DOUGAL\CS1U$\ZXC03U\DESKTOP\G52CPP CW2013\DEBUG\DEMO4MAIN.OBJ|\\DOUGAL\CS1U$\ZXC03U\DESKTOP\G52CPP CW2013\DEBUG\DEMO4OBJECT.OBJ|\\DOUGAL\CS1U$\ZXC03U\DESKTOP\G52CPP CW2013\DEBUG\DEMO4TILEMANAGER.OBJ|\\DOUGAL\CS1U$\ZXC03U\DESKTOP\G52CPP CW2013\DEBUG\DISPLAYABLEOBJECT.OBJ|\\DOUGAL\CS1U$\ZXC03U\DESKTOP\G52CPP CW2013\DEBUG\ENEMYOBJECT.OBJ|\\DOUGAL\CS1U$\ZXC03U\DESKTOP\G52CPP CW2013\DEBUG\FONTMANAGER.OBJ|\\DOUGAL\CS1U$\ZXC03U\DESKTOP\G52CPP CW2013\DEBUG\JPGIMAGE.OBJ|\\DOUGAL\CS1U$\ZXC03U\DESKTOP\G52CPP CW2013\DEBUG\MAINFUNCTION.OBJ|\\DOUGAL\CS1U$\ZXC03U\DESKTOP\G52CPP CW2013\DEBUG\MYPROJECTMAIN.OBJ|\\DOUGAL\CS1U$\ZXC03U\DESKTOP\G52CPP CW2013\DEBUG\MYPROJECTTILEMANAGER.OBJ|\\DOUGAL\CS1U$\ZXC03U\DESKTOP\G52CPP CW2013\DEBUG\SOLDIEROBJECT.OBJ|\\DOUGAL\CS1U$\ZXC03U\DESKTOP\G52CPP CW2013\DEBUG\TILEMANAGER.OBJ
C:\PROGRAM FILES (X86)\MICROSOFT VISUAL STUDIO 11.0\VC\BIN\LINK.EXE
\\DOUGAL\CS1U$\ZXC03U\DESKTOP\G52CPP CW2013\SDL-1.2.13\LIB\SDL.LIB
\\DOUGAL\CS1U$\ZXC03U\DESKTOP\G52CPP CW2013\SDL-1.2.13\LIB\SDLMAIN.LIB
\\DOUGAL\CS1U$\ZXC03U\DESKTOP\G52CPP CW2013\SDL-1.2.13\LIB\SDL_TTF.LIB
\\DOUGAL\CS1U$\ZXC03U\DESKTOP\G52CPP CW2013\SDL-1.2.13\LIB\SDL_IMAGE.LIB
C:\PROGRAM FILES (X86)\WINDOWS KITS\8.0\LIB\WIN8\UM\X86\KERNEL32.LIB
C:\PROGRAM FILES (X86)\WINDOWS KITS\8.0\LIB\WIN8\UM\X86\USER32.LIB
C:\PROGRAM FILES (X86)\WINDOWS KITS\8.0\LIB\WIN8\UM\X86\GDI32.LIB
C:\PROGRAM FILES (X86)\WINDOWS KITS\8.0\LIB\WIN8\UM\X86\WINSPOOL.LIB
C:\PROGRAM FILES (X86)\WINDOWS KITS\8.0\LIB\WIN8\UM\X86\COMDLG32.LIB
C:\PROGRAM FILES (X86)\WINDOWS KITS\8.0\LIB\WIN8\UM\X86\ADVAPI32.LIB
C:\PROGRAM FILES (X86)\WINDOWS KITS\8.0\LIB\WIN8\UM\X86\SHELL32.LIB
C:\PROGRAM FILES (X86)\WINDOWS KITS\8.0\LIB\WIN8\UM\X86\OLE32.LIB
C:\PROGRAM FILES (X86)\WINDOWS KITS\8.0\LIB\WIN8\UM\X86\OLEAUT32.LIB
C:\PROGRAM FILES (X86)\WINDOWS KITS\8.0\LIB\WIN8\UM\X86\UUID.LIB
C:\PROGRAM FILES (X86)\WINDOWS KITS\8.0\LIB\WIN8\UM\X86\ODBC32.LIB
C:\PROGRAM FILES (X86)\WINDOWS KITS\8.0\LIB\WIN8\UM\X86\ODBCCP32.LIB
\\DOUGAL\CS1U$\ZXC03U\DESKTOP\G52CPP CW2013\DEBUG\BULLETOBJECT.OBJ
\\DOUGAL\CS1U$\ZXC03U\DESKTOP\G52CPP CW2013\DEBUG\ENEMYOBJECT.OBJ
\\DOUGAL\CS1U$\ZXC03U\DESKTOP\G52CPP CW2013\DEBUG\MAINFUNCTION.OBJ
\\DOUGAL\CS1U$\ZXC03U\DESKTOP\G52CPP CW2013\DEBUG\BASEENGINE.OBJ
\\DOUGAL\CS1U$\ZXC03U\DESKTOP\G52CPP CW2013\DEBUG\DISPLAYABLEOBJECT.OBJ
\\DOUGAL\CS1U$\ZXC03U\DESKTOP\G52CPP CW2013\DEBUG\FONTMANAGER.OBJ
\\DOUGAL\CS1U$\ZXC03U\DESKTOP\G52CPP CW2013\DEBUG\JPGIMAGE.OBJ
\\DOUGAL\CS1U$\ZXC03U\DESKTOP\G52CPP CW2013\DEBUG\MYPROJECTMAIN.OBJ
\\DOUGAL\CS1U$\ZXC03U\DESKTOP\G52CPP CW2013\DEBUG\MYPROJECTTILEMANAGER.OBJ
\\DOUGAL\CS1U$\ZXC03U\DESKTOP\G52CPP CW2013\DEBUG\SOLDIEROBJECT.OBJ
\\DOUGAL\CS1U$\ZXC03U\DESKTOP\G52CPP CW2013\DEBUG\TILEMANAGER.OBJ
\\DOUGAL\CS1U$\ZXC03U\DESKTOP\G52CPP CW2013\DEBUG\BOUNCINGBALL.OBJ
\\DOUGAL\CS1U$\ZXC03U\DESKTOP\G52CPP CW2013\DEBUG\BOUNCINGBALLMAIN.OBJ
\\DOUGAL\CS1U$\ZXC03U\DESKTOP\G52CPP CW2013\DEBUG\DEMO2AMAIN.OBJ
\\DOUGAL\CS1U$\ZXC03U\DESKTOP\G52CPP CW2013\DEBUG\DEMO2MAIN.OBJ
\\DOUGAL\CS1U$\ZXC03U\DESKTOP\G52CPP CW2013\DEBUG\DEMO2OBJECT.OBJ
\\DOUGAL\CS1U$\ZXC03U\DESKTOP\G52CPP CW2013\DEBUG\DEMO2TILEMANAGER.OBJ
\\DOUGAL\CS1U$\ZXC03U\DESKTOP\G52CPP CW2013\DEBUG\DEMO3MAIN.OBJ
\\DOUGAL\CS1U$\ZXC03U\DESKTOP\G52CPP CW2013\DEBUG\DEMO3OBJECT.OBJ
\\DOUGAL\CS1U$\ZXC03U\DESKTOP\G52CPP CW2013\DEBUG\DEMO3OBJECTFINISHED.OBJ
\\DOUGAL\CS1U$\ZXC03U\DESKTOP\G52CPP CW2013\DEBUG\DEMO3TILEMANAGER.OBJ
\\DOUGAL\CS1U$\ZXC03U\DESKTOP\G52CPP CW2013\DEBUG\DEMO4MAIN.OBJ
\\DOUGAL\CS1U$\ZXC03U\DESKTOP\G52CPP CW2013\DEBUG\DEMO4OBJECT.OBJ
\\DOUGAL\CS1U$\ZXC03U\DESKTOP\G52CPP CW2013\DEBUG\DEMO4TILEMANAGER.OBJ
C:\WINDOWS\SYSTEM32\TZRES.DLL
C:\WINDOWS\GLOBALIZATION\SORTING\SORTDEFAULT.NLS
C:\PROGRAM FILES (X86)\MICROSOFT VISUAL STUDIO 11.0\VC\LIB\MSVCRT.LIB
C:\PROGRAM FILES (X86)\MICROSOFT VISUAL STUDIO 11.0\VC\LIB\OLDNAMES.LIB
C:\PROGRAM FILES (X86)\MICROSOFT VISUAL STUDIO 11.0\VC\LIB\MSVCPRT.LIB
